-------------------------------------------------------------------------------
Test set: com.nannapat.lab5.AppTest
-------------------------------------------------------------------------------
Tests run: 3, Failures: 0, Errors: 0, Skipped: 0, Time elapsed: 0.068 s - in com.nannapat.lab5.AppTest
